{
    "PropPack":
    [
     {
     "nameString":"SmallPack",
     "originalPrice":"488",
     "paoCoin":"288",
     "pngName":"SmallPack.png"
     },
     
     {
     "nameString":"NormalPack",
     "originalPrice":"888",
     "paoCoin":"488",
     "pngName":"NormalPack.png"
     },
     
     {
     "nameString":"BigPack",
     "originalPrice":"1088",
     "paoCoin":"688",
     "pngName":"BigPack.png"
     }
     ],
    "PropShop":
    [
     {
     "nameString":"EnergyC",
     "originalPrice":"40",
     "paoCoin":"20",
     "pngName":"EnergyC.png"
     },
     
     {
     "nameString":"EnergyB",
     "originalPrice":"240",
     "paoCoin":"100",
     "pngName":"EnergyB.png"
     },
     
     {
     "nameString":"magicbang",
     "originalPrice":"90",
     "paoCoin":"60",
     "pngName":"magicbang.png"
     }
     ],
    "CoinShop":
    [
     {
     "nameString":"Coin60",
     "originalCoin":"60",
     "extraCoin":"6",
     "paoCoin":"1",
     "pngName":"Coin60.png"
     
     },
     
     {
     "nameString":"Coin300",
     "originalCoin":"300",
     "extraCoin":"30",
     "paoCoin":"3",
     "pngName":"Coin300.png"
     
     },
     
     {
     "nameString":"Coin980",
     "originalCoin":"980",
     "extraCoin":"98",
     "paoCoin":"5",
     "pngName":"Coin980.png"
     
     }
     ]
}